{
    "color": "#ffff0000", 
    "name": "BARRIO 62 IGNACIO", 
    "coordinates": [
        [
            "40.4574351435024", 
            "-3.70143004640295"
        ], 
        [
            "40.4567934795616", 
            "-3.70185847952337"
        ], 
        [
            "40.4563382583369", 
            "-3.70210758978891"
        ], 
        [
            "40.4562082055604", 
            "-3.70216154915031"
        ], 
        [
            "40.4557151922998", 
            "-3.70236976623892"
        ], 
        [
            "40.4550817112281", 
            "-3.70263254496223"
        ], 
        [
            "40.4549725784671", 
            "-3.70264988383387"
        ], 
        [
            "40.4544408667697", 
            "-3.70277310280845"
        ], 
        [
            "40.4535169840027", 
            "-3.70292639855303"
        ], 
        [
            "40.4528963445826", 
            "-3.70302853314174"
        ], 
        [
            "40.4527845463299", 
            "-3.70305064174224"
        ], 
        [
            "40.451857101856", 
            "-3.70319454472971"
        ], 
        [
            "40.4517214749081", 
            "-3.70321334658965"
        ], 
        [
            "40.4511043494808", 
            "-3.70330259879445"
        ], 
        [
            "40.4510173522137", 
            "-3.70331260835097"
        ], 
        [
            "40.4500139688191", 
            "-3.70346130773839"
        ], 
        [
            "40.4484236206149", 
            "-3.70370156102093"
        ], 
        [
            "40.4473544141644", 
            "-3.70388103216672"
        ], 
        [
            "40.446919347178", 
            "-3.70354597661276"
        ], 
        [
            "40.4469093360205", 
            "-3.70330546553869"
        ], 
        [
            "40.4467896355623", 
            "-3.70095622601818"
        ], 
        [
            "40.4466729146765", 
            "-3.6987415962138"
        ], 
        [
            "40.4465885475914", 
            "-3.69714901163192"
        ], 
        [
            "40.4464813285948", 
            "-3.69492006782258"
        ], 
        [
            "40.4463242115542", 
            "-3.69178821664868"
        ], 
        [
            "40.4463087521964", 
            "-3.69148388134834"
        ], 
        [
            "40.4463055596523", 
            "-3.69141986167514"
        ], 
        [
            "40.4475005818102", 
            "-3.69129701052409"
        ], 
        [
            "40.4491978906433", 
            "-3.69113834144412"
        ], 
        [
            "40.4500848948916", 
            "-3.69111870715058"
        ], 
        [
            "40.4515849900432", 
            "-3.69098668405295"
        ], 
        [
            "40.4527093130282", 
            "-3.69085900861924"
        ], 
        [
            "40.4549791270017", 
            "-3.69064064147665"
        ], 
        [
            "40.4561138545732", 
            "-3.69052939552254"
        ], 
        [
            "40.4561374440572", 
            "-3.69092856751444"
        ], 
        [
            "40.4562197707073", 
            "-3.69255296069384"
        ], 
        [
            "40.4562813950082", 
            "-3.69371431001517"
        ], 
        [
            "40.4563629395769", 
            "-3.69518931043314"
        ], 
        [
            "40.4563978778569", 
            "-3.69589244107648"
        ], 
        [
            "40.4564443115868", 
            "-3.69667890463628"
        ], 
        [
            "40.4564784119097", 
            "-3.6971947935216"
        ], 
        [
            "40.4565623506982", 
            "-3.69756500132101"
        ], 
        [
            "40.4568782138203", 
            "-3.69897466818808"
        ], 
        [
            "40.4571562090229", 
            "-3.70023537364142"
        ], 
        [
            "40.4574351435024", 
            "-3.70143004640295"
        ]
    ]
}