{
    "color": "#ffff0000", 
    "name": "CALLE DE LA ROSALEDA", 
    "coordinates": [
        [
            "40.4227720395207", 
            "-3.71947911846971"
        ], 
        [
            "40.423170884175", 
            "-3.71985849668045"
        ], 
        [
            "40.4236478565364", 
            "-3.719963616719"
        ], 
        [
            "40.4240064158651", 
            "-3.72029255518176"
        ], 
        [
            "40.4244398685555", 
            "-3.72071324003849"
        ], 
        [
            "40.425059709766", 
            "-3.72122929741011"
        ], 
        [
            "40.4259711750786", 
            "-3.72201498461609"
        ], 
        [
            "40.4264320791365", 
            "-3.72239818618908"
        ], 
        [
            "40.427039315425", 
            "-3.72292116366681"
        ], 
        [
            "40.4271490449638", 
            "-3.72294109571939"
        ], 
        [
            "40.4274231535791", 
            "-3.72275963061887"
        ], 
        [
            "40.4274509686814", 
            "-3.72289435793686"
        ], 
        [
            "40.4273261880677", 
            "-3.72298993626084"
        ], 
        [
            "40.4271729473354", 
            "-3.72305394638129"
        ], 
        [
            "40.4270342885327", 
            "-3.72307747145267"
        ], 
        [
            "40.4269054750586", 
            "-3.72305420807712"
        ], 
        [
            "40.4267438161738", 
            "-3.72293680626182"
        ], 
        [
            "40.4258303477362", 
            "-3.72215459448714"
        ], 
        [
            "40.42457895662", 
            "-3.72107762873237"
        ], 
        [
            "40.4236260028879", 
            "-3.72015422586117"
        ], 
        [
            "40.4235403473301", 
            "-3.72010329484113"
        ], 
        [
            "40.4234115717637", 
            "-3.72007378681741"
        ], 
        [
            "40.4231673907791", 
            "-3.7200175236483"
        ], 
        [
            "40.4227505596558", 
            "-3.71960638711445"
        ], 
        [
            "40.4227720395207", 
            "-3.71947911846971"
        ]
    ]
}