{
    "color": "#ffff0000", 
    "name": "BARRIO 54 (1) HISPANOAMERICA", 
    "coordinates": [
        [
            "40.458511167091", 
            "-3.68991457400899"
        ], 
        [
            "40.4574325191077", 
            "-3.69001983197142"
        ], 
        [
            "40.4565306239265", 
            "-3.69011642716621"
        ], 
        [
            "40.455714862107", 
            "-3.69020018550033"
        ], 
        [
            "40.4548745025369", 
            "-3.69027173659891"
        ], 
        [
            "40.4540922530424", 
            "-3.69034729500925"
        ], 
        [
            "40.453200744983", 
            "-3.69044567826752"
        ], 
        [
            "40.4526793826588", 
            "-3.6905017347965"
        ], 
        [
            "40.4521409966176", 
            "-3.69054738025141"
        ], 
        [
            "40.4520718173347", 
            "-3.68925926454112"
        ], 
        [
            "40.4519867715188", 
            "-3.68780261981014"
        ], 
        [
            "40.4518926623673", 
            "-3.6863079671646"
        ], 
        [
            "40.4519216969992", 
            "-3.6862384096715"
        ], 
        [
            "40.4520351388808", 
            "-3.68619526683734"
        ], 
        [
            "40.4521644067051", 
            "-3.68619827621534"
        ], 
        [
            "40.4527608918154", 
            "-3.68652975983978"
        ], 
        [
            "40.4532908162451", 
            "-3.68681140777239"
        ], 
        [
            "40.453940150617", 
            "-3.68714198236813"
        ], 
        [
            "40.4540874254149", 
            "-3.68721179091736"
        ], 
        [
            "40.454235840105", 
            "-3.68719456143667"
        ], 
        [
            "40.4551506246441", 
            "-3.68709979078888"
        ], 
        [
            "40.4558230024156", 
            "-3.68703846335916"
        ], 
        [
            "40.4559474604036", 
            "-3.68702948250557"
        ], 
        [
            "40.4560021895273", 
            "-3.68701470549789"
        ], 
        [
            "40.4562450679306", 
            "-3.68670948856624"
        ], 
        [
            "40.4569502418182", 
            "-3.68611386035658"
        ], 
        [
            "40.4573584981127", 
            "-3.68574883361655"
        ], 
        [
            "40.4576206557815", 
            "-3.6857224777288"
        ], 
        [
            "40.4577493134215", 
            "-3.68571168379999"
        ], 
        [
            "40.4587439325136", 
            "-3.68562094573402"
        ], 
        [
            "40.458751618258", 
            "-3.68586344325411"
        ], 
        [
            "40.4588447347999", 
            "-3.68752953851898"
        ], 
        [
            "40.458888375233", 
            "-3.68830605413221"
        ], 
        [
            "40.4589113171381", 
            "-3.68882771085592"
        ], 
        [
            "40.4589384867758", 
            "-3.68929917121698"
        ], 
        [
            "40.4589288938199", 
            "-3.68942052346405"
        ], 
        [
            "40.4588789567099", 
            "-3.68957934822805"
        ], 
        [
            "40.4587938388101", 
            "-3.68972960930394"
        ], 
        [
            "40.4587046161249", 
            "-3.68982771313029"
        ], 
        [
            "40.4586428954418", 
            "-3.68986886967246"
        ], 
        [
            "40.458577382031", 
            "-3.68990134960352"
        ], 
        [
            "40.458511167091", 
            "-3.68991457400899"
        ]
    ]
}