{
    "color": "#ffff0000", 
    "name": "CALLE CIUDAD DE PALENCIA", 
    "coordinates": [
        [
            "40.4149316485521", 
            "-3.71681383093162"
        ], 
        [
            "40.4149435008621", 
            "-3.71854082714455"
        ], 
        [
            "40.4150109393097", 
            "-3.71861904944249"
        ], 
        [
            "40.4150400921288", 
            "-3.71869230542641"
        ], 
        [
            "40.4150519143976", 
            "-3.71875169948318"
        ], 
        [
            "40.4150391285047", 
            "-3.71884730472628"
        ], 
        [
            "40.4150213869969", 
            "-3.71889954564285"
        ], 
        [
            "40.4149880568307", 
            "-3.71893794332528"
        ], 
        [
            "40.4149513427426", 
            "-3.71896034799492"
        ], 
        [
            "40.4149797091425", 
            "-3.72055861631684"
        ], 
        [
            "40.4148316354931", 
            "-3.7205638751667"
        ], 
        [
            "40.4148085503923", 
            "-3.71895654867927"
        ], 
        [
            "40.414753147094", 
            "-3.71890352943463"
        ], 
        [
            "40.4147255942499", 
            "-3.71885308607638"
        ], 
        [
            "40.4147102604131", 
            "-3.71879821399499"
        ], 
        [
            "40.4147090573278", 
            "-3.71871157850752"
        ], 
        [
            "40.4147287527023", 
            "-3.71862516536597"
        ], 
        [
            "40.4147691057032", 
            "-3.71857772423153"
        ], 
        [
            "40.4147813957018", 
            "-3.71856189806407"
        ], 
        [
            "40.4147591631095", 
            "-3.7168139304235"
        ], 
        [
            "40.4149316485521", 
            "-3.71681383093162"
        ]
    ]
}