{
    "color": "#ffff0000", 
    "name": "BARRIO 63 IGNACIO", 
    "coordinates": [
        [
            "40.4574996681764", 
            "-3.70141948973359"
        ], 
        [
            "40.4579867009238", 
            "-3.70101766618816"
        ], 
        [
            "40.4582168018901", 
            "-3.70082557388156"
        ], 
        [
            "40.4584093657726", 
            "-3.70065401920281"
        ], 
        [
            "40.4585080072153", 
            "-3.70055018366688"
        ], 
        [
            "40.4588280879904", 
            "-3.70018615338103"
        ], 
        [
            "40.4591349633357", 
            "-3.69983923974111"
        ], 
        [
            "40.4597448181541", 
            "-3.69916979706854"
        ], 
        [
            "40.4601780303198", 
            "-3.69872905072951"
        ], 
        [
            "40.460508696238", 
            "-3.69843755544284"
        ], 
        [
            "40.4605979933392", 
            "-3.69835498736827"
        ], 
        [
            "40.4607592755889", 
            "-3.69827891375271"
        ], 
        [
            "40.4612345806135", 
            "-3.69805858865718"
        ], 
        [
            "40.461537447293", 
            "-3.69792335210255"
        ], 
        [
            "40.4619483276361", 
            "-3.69772859416019"
        ], 
        [
            "40.4621276340829", 
            "-3.6976146451978"
        ], 
        [
            "40.4622503529593", 
            "-3.69752370464469"
        ], 
        [
            "40.4623294483521", 
            "-3.69745581737627"
        ], 
        [
            "40.4623958182419", 
            "-3.69738669285824"
        ], 
        [
            "40.4627803915568", 
            "-3.69704517739291"
        ], 
        [
            "40.4629674283237", 
            "-3.69688053119492"
        ], 
        [
            "40.4633828118744", 
            "-3.69650488542907"
        ], 
        [
            "40.4636552230231", 
            "-3.69626343173599"
        ], 
        [
            "40.4640749529973", 
            "-3.69588952629376"
        ], 
        [
            "40.4641221791917", 
            "-3.69584119550123"
        ], 
        [
            "40.4641687753024", 
            "-3.69578291359148"
        ], 
        [
            "40.4642162756984", 
            "-3.69571003716672"
        ], 
        [
            "40.4642422477695", 
            "-3.69563798180961"
        ], 
        [
            "40.4644410631576", 
            "-3.69508636092386"
        ], 
        [
            "40.4646414491281", 
            "-3.69452748067775"
        ], 
        [
            "40.4648732878276", 
            "-3.69388742926422"
        ], 
        [
            "40.4651153221953", 
            "-3.69317236642182"
        ], 
        [
            "40.4651802410248", 
            "-3.69294221036629"
        ], 
        [
            "40.4652496825864", 
            "-3.69265256496449"
        ], 
        [
            "40.4653051128921", 
            "-3.69230009675215"
        ], 
        [
            "40.4653987748333", 
            "-3.69164887437109"
        ], 
        [
            "40.4654934075845", 
            "-3.69090704220897"
        ], 
        [
            "40.4654913566144", 
            "-3.69065572684197"
        ], 
        [
            "40.4655163673408", 
            "-3.69033488444112"
        ], 
        [
            "40.4655552263297", 
            "-3.69007468088302"
        ], 
        [
            "40.4654410717892", 
            "-3.68958421537097"
        ], 
        [
            "40.4646848892808", 
            "-3.6896434725114"
        ], 
        [
            "40.4634550878109", 
            "-3.68976108576745"
        ], 
        [
            "40.462358883718", 
            "-3.68988767408314"
        ], 
        [
            "40.461707419602", 
            "-3.68993314740841"
        ], 
        [
            "40.4608133307003", 
            "-3.69004311234219"
        ], 
        [
            "40.4601783566404", 
            "-3.69010741388042"
        ], 
        [
            "40.4596495210061", 
            "-3.69016154518081"
        ], 
        [
            "40.4587181619808", 
            "-3.6902600949215"
        ], 
        [
            "40.4582945650517", 
            "-3.69029669418289"
        ], 
        [
            "40.4574706902038", 
            "-3.69035543322997"
        ], 
        [
            "40.4568707553741", 
            "-3.69041999696036"
        ], 
        [
            "40.4564954158259", 
            "-3.69046453093671"
        ], 
        [
            "40.4561898378395", 
            "-3.69048874533212"
        ], 
        [
            "40.4561939274389", 
            "-3.69092394444319"
        ], 
        [
            "40.4562258250833", 
            "-3.6915565643481"
        ], 
        [
            "40.4562952440961", 
            "-3.69265219498358"
        ], 
        [
            "40.456342738671", 
            "-3.69367873561983"
        ], 
        [
            "40.4563930640148", 
            "-3.69458980291968"
        ], 
        [
            "40.4564959879294", 
            "-3.69639125700121"
        ], 
        [
            "40.4565252609455", 
            "-3.69692379734348"
        ], 
        [
            "40.4565332736896", 
            "-3.69707428779234"
        ], 
        [
            "40.4565385139417", 
            "-3.69712983237873"
        ], 
        [
            "40.4565481492217", 
            "-3.69723868482956"
        ], 
        [
            "40.4565613389049", 
            "-3.69730070806425"
        ], 
        [
            "40.4565857696244", 
            "-3.69738519535562"
        ], 
        [
            "40.4566349794865", 
            "-3.69757793386662"
        ], 
        [
            "40.4566712108015", 
            "-3.69773703702993"
        ], 
        [
            "40.4567896165648", 
            "-3.69820927264082"
        ], 
        [
            "40.456929813039", 
            "-3.69886529961387"
        ], 
        [
            "40.4570962444737", 
            "-3.69959622625158"
        ], 
        [
            "40.4571839101816", 
            "-3.70000526505718"
        ], 
        [
            "40.4573874011683", 
            "-3.70089695555902"
        ], 
        [
            "40.4574996681764", 
            "-3.70141948973359"
        ]
    ]
}