{
    "color": "#ffff0000", 
    "name": "BARRIO 21 IMPERIAL", 
    "coordinates": [
        [
            "40.4012666814184", 
            "-3.71429064822474"
        ], 
        [
            "40.4017813041589", 
            "-3.71404699895185"
        ], 
        [
            "40.4024610743417", 
            "-3.7137288637728"
        ], 
        [
            "40.403277443868", 
            "-3.713338477742"
        ], 
        [
            "40.4038521665945", 
            "-3.71308223172733"
        ], 
        [
            "40.4046716260039", 
            "-3.71269408562098"
        ], 
        [
            "40.4058313485374", 
            "-3.71215805609166"
        ], 
        [
            "40.406413595511", 
            "-3.71185840442961"
        ], 
        [
            "40.4067146799445", 
            "-3.71215400666362"
        ], 
        [
            "40.4068046159787", 
            "-3.71238714415036"
        ], 
        [
            "40.4073860483132", 
            "-3.71378907992551"
        ], 
        [
            "40.4077138818154", 
            "-3.71457670062893"
        ], 
        [
            "40.4079788265631", 
            "-3.71519121354718"
        ], 
        [
            "40.4080608450219", 
            "-3.7153112223344"
        ], 
        [
            "40.4083630076247", 
            "-3.71604508706224"
        ], 
        [
            "40.4085948262647", 
            "-3.71660709745787"
        ], 
        [
            "40.4086601847808", 
            "-3.71674426193641"
        ], 
        [
            "40.4087111573755", 
            "-3.71679895792893"
        ], 
        [
            "40.4093929498392", 
            "-3.71722006824707"
        ], 
        [
            "40.4102266221811", 
            "-3.71774724740861"
        ], 
        [
            "40.4111116122644", 
            "-3.71828540219393"
        ], 
        [
            "40.4114981417586", 
            "-3.71810325183567"
        ], 
        [
            "40.4121250512649", 
            "-3.71778753775984"
        ], 
        [
            "40.4129809656048", 
            "-3.71735471512195"
        ], 
        [
            "40.4131297056383", 
            "-3.71728388046601"
        ], 
        [
            "40.4138445563149", 
            "-3.71695558785262"
        ], 
        [
            "40.4138543828185", 
            "-3.71705259661577"
        ], 
        [
            "40.4139120218693", 
            "-3.71966268263237"
        ], 
        [
            "40.413914606462", 
            "-3.72098383625861"
        ], 
        [
            "40.4139302316935", 
            "-3.72147287306905"
        ], 
        [
            "40.4139421714403", 
            "-3.72292468494169"
        ], 
        [
            "40.4120178595323", 
            "-3.72287057928374"
        ], 
        [
            "40.4114113340093", 
            "-3.72256782473713"
        ], 
        [
            "40.4095012250537", 
            "-3.72203875135159"
        ], 
        [
            "40.4084958312131", 
            "-3.7217599279294"
        ], 
        [
            "40.4068391173242", 
            "-3.7222728412509"
        ], 
        [
            "40.4058184607565", 
            "-3.72258607645798"
        ], 
        [
            "40.4052374532489", 
            "-3.7226859720765"
        ], 
        [
            "40.404546265469", 
            "-3.72266182561972"
        ], 
        [
            "40.4037648396018", 
            "-3.72253056772428"
        ], 
        [
            "40.4025818629215", 
            "-3.72236146475697"
        ], 
        [
            "40.4020058236876", 
            "-3.72217637902482"
        ], 
        [
            "40.4013461099718", 
            "-3.72189569469822"
        ], 
        [
            "40.4009495003141", 
            "-3.72164503235032"
        ], 
        [
            "40.4005219925911", 
            "-3.72108203673056"
        ], 
        [
            "40.4001254314128", 
            "-3.72034626580484"
        ], 
        [
            "40.3999740364694", 
            "-3.71998725964389"
        ], 
        [
            "40.3998588631932", 
            "-3.71929358550589"
        ], 
        [
            "40.3998565060659", 
            "-3.7189864267924"
        ], 
        [
            "40.3999957070264", 
            "-3.71715403286779"
        ], 
        [
            "40.4000277591631", 
            "-3.71680256435018"
        ], 
        [
            "40.4000210243535", 
            "-3.71651211121761"
        ], 
        [
            "40.3999971852762", 
            "-3.7162270611692"
        ], 
        [
            "40.3999316756385", 
            "-3.71577962631343"
        ], 
        [
            "40.399856869552", 
            "-3.71545494746822"
        ], 
        [
            "40.3996884338969", 
            "-3.71493127657291"
        ], 
        [
            "40.4012666814184", 
            "-3.71429064822474"
        ]
    ]
}