{
    "color": "#ffff0000", 
    "name": "BARRIO 85 LA PAZ", 
    "coordinates": [
        [
            "40.4858338878872", 
            "-3.70875347158322"
        ], 
        [
            "40.4857240591086", 
            "-3.70877904972398"
        ], 
        [
            "40.485601622254", 
            "-3.70878110320387"
        ], 
        [
            "40.4854817558903", 
            "-3.70877984222924"
        ], 
        [
            "40.4853773352551", 
            "-3.70875535188487"
        ], 
        [
            "40.4852757518599", 
            "-3.70868410853829"
        ], 
        [
            "40.4851441993067", 
            "-3.70850895866575"
        ], 
        [
            "40.4845401734316", 
            "-3.70760370950935"
        ], 
        [
            "40.4842914884679", 
            "-3.70725269862209"
        ], 
        [
            "40.4839704767186", 
            "-3.70677816380781"
        ], 
        [
            "40.4837424496647", 
            "-3.70643779492079"
        ], 
        [
            "40.4835427690582", 
            "-3.70614164254698"
        ], 
        [
            "40.4834414901654", 
            "-3.70602028453057"
        ], 
        [
            "40.4832981128812", 
            "-3.7058528657193"
        ], 
        [
            "40.4831423526807", 
            "-3.70571935943426"
        ], 
        [
            "40.4829462867675", 
            "-3.70554741100427"
        ], 
        [
            "40.4828237435784", 
            "-3.70546867801955"
        ], 
        [
            "40.4826247325618", 
            "-3.70535356013888"
        ], 
        [
            "40.4824607693874", 
            "-3.70528219179845"
        ], 
        [
            "40.4820480599489", 
            "-3.70507028876825"
        ], 
        [
            "40.4814307545876", 
            "-3.70488303182195"
        ], 
        [
            "40.481282044834", 
            "-3.70485133033824"
        ], 
        [
            "40.480763859564", 
            "-3.7046717973666"
        ], 
        [
            "40.4797380310391", 
            "-3.70431944498542"
        ], 
        [
            "40.4790383372844", 
            "-3.70403394450216"
        ], 
        [
            "40.4781042393947", 
            "-3.70370238322122"
        ], 
        [
            "40.477177327379", 
            "-3.70337760232339"
        ], 
        [
            "40.4768547029678", 
            "-3.70325989475895"
        ], 
        [
            "40.4760326849992", 
            "-3.70296326551615"
        ], 
        [
            "40.4748027392091", 
            "-3.70252507759315"
        ], 
        [
            "40.4745359955914", 
            "-3.70240962066611"
        ], 
        [
            "40.4742276314289", 
            "-3.70230993996932"
        ], 
        [
            "40.4741483461383", 
            "-3.70225280426667"
        ], 
        [
            "40.4740640897421", 
            "-3.70212795131209"
        ], 
        [
            "40.4740281048255", 
            "-3.70197838666003"
        ], 
        [
            "40.4740369542504", 
            "-3.70184189601586"
        ], 
        [
            "40.4741387430251", 
            "-3.70172108231163"
        ], 
        [
            "40.4743372668063", 
            "-3.70151932482723"
        ], 
        [
            "40.474470030462", 
            "-3.70136073339777"
        ], 
        [
            "40.4746139554759", 
            "-3.70116891280685"
        ], 
        [
            "40.4747047328179", 
            "-3.70101226059715"
        ], 
        [
            "40.4747862443445", 
            "-3.70083798523607"
        ], 
        [
            "40.4748563587076", 
            "-3.70066612932205"
        ], 
        [
            "40.4749087548245", 
            "-3.70049016474475"
        ], 
        [
            "40.474940032206", 
            "-3.70035810852883"
        ], 
        [
            "40.4749665291524", 
            "-3.7002195421977"
        ], 
        [
            "40.4749868075431", 
            "-3.70004954772698"
        ], 
        [
            "40.4750007206543", 
            "-3.69987108177313"
        ], 
        [
            "40.4750032916109", 
            "-3.69971140952612"
        ], 
        [
            "40.4749969877876", 
            "-3.6994293588495"
        ], 
        [
            "40.4749935617011", 
            "-3.69920028188106"
        ], 
        [
            "40.4749763024788", 
            "-3.69911525615484"
        ], 
        [
            "40.4747660258472", 
            "-3.69860876488205"
        ], 
        [
            "40.4746980971749", 
            "-3.69843575471339"
        ], 
        [
            "40.4746225290442", 
            "-3.69819962720076"
        ], 
        [
            "40.4745960489082", 
            "-3.69806907323116"
        ], 
        [
            "40.4745713804338", 
            "-3.69789805159112"
        ], 
        [
            "40.4745531728977", 
            "-3.69772555806416"
        ], 
        [
            "40.4745527486876", 
            "-3.69753013392824"
        ], 
        [
            "40.4745635135194", 
            "-3.69734112911241"
        ], 
        [
            "40.4745774477932", 
            "-3.69715846130564"
        ], 
        [
            "40.4746108642409", 
            "-3.69695780078743"
        ], 
        [
            "40.4746634447331", 
            "-3.69675031728233"
        ], 
        [
            "40.4747093687044", 
            "-3.69658268849972"
        ], 
        [
            "40.4747505312239", 
            "-3.69640660503752"
        ], 
        [
            "40.4747838383845", 
            "-3.69620312422201"
        ], 
        [
            "40.4747961671674", 
            "-3.69602043899728"
        ], 
        [
            "40.4748004851562", 
            "-3.69583703605218"
        ], 
        [
            "40.4747885770356", 
            "-3.69568351823883"
        ], 
        [
            "40.4747686613441", 
            "-3.6955278168976"
        ], 
        [
            "40.4747266691033", 
            "-3.69530884923337"
        ], 
        [
            "40.4746732487234", 
            "-3.69510418266205"
        ], 
        [
            "40.4746530546709", 
            "-3.69499470698763"
        ], 
        [
            "40.4746299930489", 
            "-3.69482846754451"
        ], 
        [
            "40.4746024910106", 
            "-3.69459435008363"
        ], 
        [
            "40.4745780018521", 
            "-3.69439867787798"
        ], 
        [
            "40.4745772438701", 
            "-3.69425788424399"
        ], 
        [
            "40.4745766367627", 
            "-3.69409187646821"
        ], 
        [
            "40.4745942128112", 
            "-3.69383931358025"
        ], 
        [
            "40.4746093925274", 
            "-3.69371549369114"
        ], 
        [
            "40.4746544266547", 
            "-3.69342808091712"
        ], 
        [
            "40.4746894208806", 
            "-3.69320990670329"
        ], 
        [
            "40.4747246984386", 
            "-3.6929615885338"
        ], 
        [
            "40.4747401291209", 
            "-3.69279574524562"
        ], 
        [
            "40.4747459106679", 
            "-3.69263400535156"
        ], 
        [
            "40.4747436219965", 
            "-3.69248058777078"
        ], 
        [
            "40.474730117917", 
            "-3.69232495332106"
        ], 
        [
            "40.4746992844733", 
            "-3.69211660853336"
        ], 
        [
            "40.474624301249", 
            "-3.69177801282992"
        ], 
        [
            "40.4745603699026", 
            "-3.69154700376282"
        ], 
        [
            "40.4745098176135", 
            "-3.69126046468898"
        ], 
        [
            "40.4744924246624", 
            "-3.69114445169504"
        ], 
        [
            "40.4744910367753", 
            "-3.69104044962113"
        ], 
        [
            "40.4745094606886", 
            "-3.69081091926091"
        ], 
        [
            "40.4745899025016", 
            "-3.69029706921642"
        ], 
        [
            "40.474744405328", 
            "-3.68947299164845"
        ], 
        [
            "40.47476008658", 
            "-3.68933287247508"
        ], 
        [
            "40.4745365278608", 
            "-3.68901414197933"
        ], 
        [
            "40.474456853949", 
            "-3.68887198278698"
        ], 
        [
            "40.4742054326428", 
            "-3.68729402581086"
        ], 
        [
            "40.4774222748767", 
            "-3.6864192070798"
        ], 
        [
            "40.4800128808726", 
            "-3.68572176258175"
        ], 
        [
            "40.4807666815427", 
            "-3.68552942915913"
        ], 
        [
            "40.481265054606", 
            "-3.68558312532308"
        ], 
        [
            "40.48165386952", 
            "-3.68565686432229"
        ], 
        [
            "40.48191784593", 
            "-3.68579272988093"
        ], 
        [
            "40.4821303706515", 
            "-3.68596626072869"
        ], 
        [
            "40.4823535202509", 
            "-3.68626289976044"
        ], 
        [
            "40.4826276961042", 
            "-3.686842752354"
        ], 
        [
            "40.4831048460419", 
            "-3.68794321776669"
        ], 
        [
            "40.4836918201324", 
            "-3.68933767416388"
        ], 
        [
            "40.48429812012", 
            "-3.6907928998146"
        ], 
        [
            "40.4849438632786", 
            "-3.69238924191971"
        ], 
        [
            "40.4858533797543", 
            "-3.6946876305509"
        ], 
        [
            "40.4861164475037", 
            "-3.69528414787817"
        ], 
        [
            "40.4864309860076", 
            "-3.69584258530466"
        ], 
        [
            "40.4868250302726", 
            "-3.69640058037239"
        ], 
        [
            "40.4872660074617", 
            "-3.69688705617762"
        ], 
        [
            "40.4878381335991", 
            "-3.69735827904663"
        ], 
        [
            "40.4883268795615", 
            "-3.69763476737457"
        ], 
        [
            "40.4888195738458", 
            "-3.69786931010129"
        ], 
        [
            "40.4892339884429", 
            "-3.69798253103964"
        ], 
        [
            "40.4897172918109", 
            "-3.69804641319988"
        ], 
        [
            "40.4900245105917", 
            "-3.69803230909778"
        ], 
        [
            "40.4900955351707", 
            "-3.69808845652692"
        ], 
        [
            "40.4894952185606", 
            "-3.70012439354722"
        ], 
        [
            "40.4891837152988", 
            "-3.70109992384096"
        ], 
        [
            "40.4890962828539", 
            "-3.70130434917907"
        ], 
        [
            "40.4889668138783", 
            "-3.70154940380934"
        ], 
        [
            "40.4888085114716", 
            "-3.70181126863332"
        ], 
        [
            "40.4885204657945", 
            "-3.70221968592428"
        ], 
        [
            "40.4880686421928", 
            "-3.70291421502458"
        ], 
        [
            "40.4880217734352", 
            "-3.70304067541907"
        ], 
        [
            "40.4879146952853", 
            "-3.70329237365209"
        ], 
        [
            "40.4878592635701", 
            "-3.70345817771102"
        ], 
        [
            "40.4877461980717", 
            "-3.70382037600139"
        ], 
        [
            "40.4876233552596", 
            "-3.70422316429737"
        ], 
        [
            "40.4873517847193", 
            "-3.70513984470223"
        ], 
        [
            "40.4872952890823", 
            "-3.70540960435442"
        ], 
        [
            "40.4867850711193", 
            "-3.70713410132719"
        ], 
        [
            "40.4866625449182", 
            "-3.70752293893383"
        ], 
        [
            "40.4865802617921", 
            "-3.70773766908393"
        ], 
        [
            "40.4864691238876", 
            "-3.70797262888313"
        ], 
        [
            "40.4863344803607", 
            "-3.70820734009629"
        ], 
        [
            "40.4861866518749", 
            "-3.70846244429385"
        ], 
        [
            "40.4860203768882", 
            "-3.70866947549505"
        ], 
        [
            "40.4859185741354", 
            "-3.70872842798739"
        ], 
        [
            "40.4858338878872", 
            "-3.70875347158322"
        ]
    ]
}