{
    "color": "#ffff0000", 
    "name": "BARRIO 35 JERONIMOS", 
    "coordinates": [
        [
            "40.4088655930125", 
            "-3.69152510653588"
        ], 
        [
            "40.4080019577548", 
            "-3.69009929743923"
        ], 
        [
            "40.4072532939658", 
            "-3.68899005559454"
        ], 
        [
            "40.4069489882249", 
            "-3.68834187456096"
        ], 
        [
            "40.4067521926191", 
            "-3.68777240925695"
        ], 
        [
            "40.4066268220658", 
            "-3.68729804665036"
        ], 
        [
            "40.4064896673731", 
            "-3.68664909480239"
        ], 
        [
            "40.4064327609122", 
            "-3.68629514710416"
        ], 
        [
            "40.4064164080214", 
            "-3.6860265639436"
        ], 
        [
            "40.4064153967796", 
            "-3.6857648471911"
        ], 
        [
            "40.406432151663", 
            "-3.68553350748176"
        ], 
        [
            "40.4066906820724", 
            "-3.68392453408348"
        ], 
        [
            "40.406804934731", 
            "-3.68325025953742"
        ], 
        [
            "40.4069882851741", 
            "-3.68217416118644"
        ], 
        [
            "40.4070439628822", 
            "-3.68186268571225"
        ], 
        [
            "40.4075276860705", 
            "-3.67906288865874"
        ], 
        [
            "40.4076385195666", 
            "-3.67886126248154"
        ], 
        [
            "40.4077734489976", 
            "-3.67871361548309"
        ], 
        [
            "40.4079228861307", 
            "-3.67861901223385"
        ], 
        [
            "40.4085152294293", 
            "-3.67822961090245"
        ], 
        [
            "40.4100993230128", 
            "-3.67712944277198"
        ], 
        [
            "40.410797246359", 
            "-3.67663623118519"
        ], 
        [
            "40.4110476595783", 
            "-3.67647972543441"
        ], 
        [
            "40.4111677830541", 
            "-3.67641738660109"
        ], 
        [
            "40.4113141951013", 
            "-3.67638706833165"
        ], 
        [
            "40.411440320739", 
            "-3.676405275684"
        ], 
        [
            "40.4116211948993", 
            "-3.67647062893771"
        ], 
        [
            "40.4144234371066", 
            "-3.67745783459995"
        ], 
        [
            "40.4161860591568", 
            "-3.67809487292533"
        ], 
        [
            "40.4181410566319", 
            "-3.67879865422414"
        ], 
        [
            "40.4189307662094", 
            "-3.67906534091749"
        ], 
        [
            "40.4198860884224", 
            "-3.67940849503843"
        ], 
        [
            "40.421490701748", 
            "-3.6799862542795"
        ], 
        [
            "40.4215298100466", 
            "-3.68003639361315"
        ], 
        [
            "40.4215539612615", 
            "-3.68008138036331"
        ], 
        [
            "40.4215568655844", 
            "-3.68014106757681"
        ], 
        [
            "40.421551511229", 
            "-3.68019727064411"
        ], 
        [
            "40.4212517782705", 
            "-3.68189449602864"
        ], 
        [
            "40.4209775917111", 
            "-3.68335698649939"
        ], 
        [
            "40.4208225302409", 
            "-3.68423181456797"
        ], 
        [
            "40.4205929047785", 
            "-3.68531248883285"
        ], 
        [
            "40.4203112210751", 
            "-3.68666366005922"
        ], 
        [
            "40.4200644933847", 
            "-3.68782997698923"
        ], 
        [
            "40.4199266187783", 
            "-3.6886926715873"
        ], 
        [
            "40.4197759318508", 
            "-3.68949950676279"
        ], 
        [
            "40.4195042497154", 
            "-3.69155809386962"
        ], 
        [
            "40.4194388724765", 
            "-3.69209404260516"
        ], 
        [
            "40.4192913826491", 
            "-3.6928800954575"
        ], 
        [
            "40.4189111971035", 
            "-3.69289568876705"
        ], 
        [
            "40.4187384727576", 
            "-3.69303320387793"
        ], 
        [
            "40.4186599125694", 
            "-3.69306934224691"
        ], 
        [
            "40.4185523881275", 
            "-3.69311111921808"
        ], 
        [
            "40.418447488381", 
            "-3.69314367426801"
        ], 
        [
            "40.4183430391909", 
            "-3.69316120319626"
        ], 
        [
            "40.4177271972605", 
            "-3.69328895608453"
        ], 
        [
            "40.4170617052602", 
            "-3.69342422995088"
        ], 
        [
            "40.4168586317883", 
            "-3.69350184101106"
        ], 
        [
            "40.41633796788", 
            "-3.69361487692281"
        ], 
        [
            "40.4158899026368", 
            "-3.69361700118136"
        ], 
        [
            "40.4150113911881", 
            "-3.69342140639208"
        ], 
        [
            "40.4144306513748", 
            "-3.69329594938731"
        ], 
        [
            "40.4134369262637", 
            "-3.69308373161826"
        ], 
        [
            "40.412599032565", 
            "-3.69290088669927"
        ], 
        [
            "40.4121425167893", 
            "-3.69280239608893"
        ], 
        [
            "40.4116060202732", 
            "-3.6926791407472"
        ], 
        [
            "40.4109217888059", 
            "-3.69252382780955"
        ], 
        [
            "40.4101905771691", 
            "-3.69235713822046"
        ], 
        [
            "40.4099421614335", 
            "-3.69229137186105"
        ], 
        [
            "40.4093626576677", 
            "-3.6920443675742"
        ], 
        [
            "40.4091580678539", 
            "-3.6918740161658"
        ], 
        [
            "40.409039792631", 
            "-3.69176098211445"
        ], 
        [
            "40.4089430194952", 
            "-3.69164319138447"
        ], 
        [
            "40.4088655930125", 
            "-3.69152510653588"
        ]
    ]
}