{
    "color": "#ffff0000", 
    "name": "PASEO DE CAMOENS", 
    "coordinates": [
        [
            "40.4299440166821", 
            "-3.72433196648769"
        ], 
        [
            "40.4305768877297", 
            "-3.72503123342041"
        ], 
        [
            "40.430839782391", 
            "-3.72533251520536"
        ], 
        [
            "40.4311410171485", 
            "-3.72560288179114"
        ], 
        [
            "40.4320315011515", 
            "-3.72637717238017"
        ], 
        [
            "40.4325772943136", 
            "-3.72685217991052"
        ], 
        [
            "40.4327506483467", 
            "-3.72703124335311"
        ], 
        [
            "40.4325539482191", 
            "-3.72731336487732"
        ], 
        [
            "40.4324691079724", 
            "-3.72719626480974"
        ], 
        [
            "40.4323670289476", 
            "-3.72708709288955"
        ], 
        [
            "40.4320565091691", 
            "-3.72682025783163"
        ], 
        [
            "40.4313756421788", 
            "-3.72622370988594"
        ], 
        [
            "40.430991762551", 
            "-3.72588106696235"
        ], 
        [
            "40.4304824463803", 
            "-3.72537734102969"
        ], 
        [
            "40.4300118491924", 
            "-3.7248598413276"
        ], 
        [
            "40.4297657715913", 
            "-3.72458052818732"
        ], 
        [
            "40.4296119593054", 
            "-3.72459224216113"
        ], 
        [
            "40.4294590473826", 
            "-3.724552574011"
        ], 
        [
            "40.4293749837161", 
            "-3.72448253175848"
        ], 
        [
            "40.4293043394015", 
            "-3.7243780633993"
        ], 
        [
            "40.4292840815536", 
            "-3.72423956615135"
        ], 
        [
            "40.4292930642403", 
            "-3.72407026948838"
        ], 
        [
            "40.4293174784383", 
            "-3.72396682167309"
        ], 
        [
            "40.4293657222043", 
            "-3.72385325784155"
        ], 
        [
            "40.4295009732351", 
            "-3.72376136836564"
        ], 
        [
            "40.4295829811275", 
            "-3.7237380486259"
        ], 
        [
            "40.4296804855038", 
            "-3.72377020723621"
        ], 
        [
            "40.4297673416657", 
            "-3.72381607986319"
        ], 
        [
            "40.4298408215538", 
            "-3.72388946538774"
        ], 
        [
            "40.4298901689483", 
            "-3.72402136130824"
        ], 
        [
            "40.4299180238989", 
            "-3.72421179712091"
        ], 
        [
            "40.4299440166821", 
            "-3.72433196648769"
        ]
    ]
}